ggplot2入門 [基礎編]
…
　箱ひげ図はグループごとにある変数の分布を比較することもできますが、複数の変数の比較も可能です。そのためにはデータの形を変形する必要があります。たとえば、Polity IVの民主主義指標（Polity_Score）とFreedom Houseの民主主義指標（FH_Total）の分布を、大陸ごとに示したいとします。Country_dfの場合、Polity_ScoreとFH_Totalは別々の変数になっていますが、pivot_longer()を使って、これらを1つの変数にまとめる必要があります。

Democracy_df <- Country_df %>% 
  select(Country, Continent, Polity_Score, FH_Total) %>%
  filter(!is.na(Polity_Score), !is.na(FH_Total)) %>%
  pivot_longer(cols      = contains("_"),
               names_to  = "Type",
               values_to = "Value") %>%
  mutate(Type = recode(Type,
                       "FH_Total"     = "Freedom House",
                       "Polity_Score" = "Polity IV"))

Democracy_df

## # A tibble: 316 x 4
##    Country     Continent Type          Value
##    <chr>       <chr>     <chr>         <dbl>
##  1 Afghanistan Asia      Polity IV        -1
##  2 Afghanistan Asia      Freedom House    27
##  3 Albania     Europe    Polity IV         9
##  4 Albania     Europe    Freedom House    67
##  5 Algeria     Africa    Polity IV         2
##  6 Algeria     Africa    Freedom House    34
##  7 Angola      Africa    Polity IV        -2
##  8 Angola      Africa    Freedom House    32
##  9 Argentina   America   Polity IV         9
## 10 Argentina   America   Freedom House    85
## # … with 306 more rows
…
