dplyr入門 (旧版)
…
filter()

filter()はある条件に合ったケースのみを抽出する関数である。使い方はfilter(データ, 条件)である。ここでデータはflightsである。試しに3月のデータだけを抽出してみる。月はmonth変数である。

filter(flights, month == 3)

## # A tibble: 28,834 x 19
##     year month   day dep_time sched_dep_time dep_delay arr_time sched_arr_time
##    <int> <int> <int>    <int>          <int>     <dbl>    <int>          <int>
##  1  2013     3     1        4           2159       125      318             56
##  2  2013     3     1       50           2358        52      526            438
##  3  2013     3     1      117           2245       152      223           2354
##  4  2013     3     1      454            500        -6      633            648
##  5  2013     3     1      505            515       -10      746            810
##  6  2013     3     1      521            530        -9      813            827
##  7  2013     3     1      537            540        -3      856            850
##  8  2013     3     1      541            545        -4     1014           1023
##  9  2013     3     1      549            600       -11      639            703
## 10  2013     3     1      550            600       -10      747            801
## # … with 28,824 more rows, and 11 more variables: arr_delay <dbl>,
## #   carrier <chr>, flight <int>, tailnum <chr>, origin <chr>, dest <chr>,
## #   air_time <dbl>, distance <dbl>, hour <dbl>, minute <dbl>, time_hour <dttm>
…
A >= B

AはBより大きいか、同じ(以上)

A != B

AとBは同じではない

先ほどの例では3月(month == 3)のデータを抽出したが、もっと条件を絞ることもできる。

たとえば、3月10日に絞りたい場合の条件式はmonth == 3 & day == 10である。

filter(flights, month == 3 & day == 10)

## # A tibble: 908 x 19
##     year month   day dep_time sched_dep_time dep_delay arr_time sched_arr_time
##    <int> <int> <int>    <int>          <int>     <dbl>    <int>          <int>
##  1  2013     3    10        6           2359         7      336            338
##  2  2013     3    10       41           2100       221      230           2257
##  3  2013     3    10       44           2355        49      416            340
##  4  2013     3    10      153           2253       180      302             14
##  5  2013     3    10      454            500        -6      628            648
##  6  2013     3    10      512            515        -3      742            814
##  7  2013     3    10      535            540        -5      819            850
##  8  2013     3    10      553            600        -7      815            830
##  9  2013     3    10      555            600        -5      848            910
## 10  2013     3    10      556            600        -4      801            805
## # … with 898 more rows, and 11 more variables: arr_delay <dbl>, carrier <chr>,
## #   flight <int>, tailnum <chr>, origin <chr>, dest <chr>, air_time <dbl>,
## #   distance <dbl>, hour <dbl>, minute <dbl>, time_hour <dttm>

&はANDを意味する。もし、3月10日と11日のデータがほしいなるどうすればいいか。 この場合、OR表現が必要となる。ORは|と書く。

filter(flights, month == 3 & (day == 10 | day == 11))

## # A tibble: 1,888 x 19
##     year month   day dep_time sched_dep_time dep_delay arr_time sched_arr_time
##    <int> <int> <int>    <int>          <int>     <dbl>    <int>          <int>
##  1  2013     3    10        6           2359         7      336            338
##  2  2013     3    10       41           2100       221      230           2257
##  3  2013     3    10       44           2355        49      416            340
##  4  2013     3    10      153           2253       180      302             14
##  5  2013     3    10      454            500        -6      628            648
##  6  2013     3    10      512            515        -3      742            814
##  7  2013     3    10      535            540        -5      819            850
##  8  2013     3    10      553            600        -7      815            830
##  9  2013     3    10      555            600        -5      848            910
## 10  2013     3    10      556            600        -4      801            805
## # … with 1,878 more rows, and 11 more variables: arr_delay <dbl>,
## #   carrier <chr>, flight <int>, tailnum <chr>, origin <chr>, dest <chr>,
## #   air_time <dbl>, distance <dbl>, hour <dbl>, minute <dbl>, time_hour <dttm>

ここで条件式はANDとORの組み合わせになっている。簡単に表現すると「A and (B or C)」である。これは

(AかつB) あるいは(AかつC)

を意味する。ちなみに以上のコマンドはもっと省略できる。

filter(flights, month == 3 & (day == 10 | 11))

## # A tibble: 28,834 x 19
##     year month   day dep_time sched_dep_time dep_delay arr_time sched_arr_time
##    <int> <int> <int>    <int>          <int>     <dbl>    <int>          <int>
##  1  2013     3     1        4           2159       125      318             56
##  2  2013     3     1       50           2358        52      526            438
##  3  2013     3     1      117           2245       152      223           2354
##  4  2013     3     1      454            500        -6      633            648
##  5  2013     3     1      505            515       -10      746            810
##  6  2013     3     1      521            530        -9      813            827
##  7  2013     3     1      537            540        -3      856            850
##  8  2013     3     1      541            545        -4     1014           1023
##  9  2013     3     1      549            600       -11      639            703
## 10  2013     3     1      550            600       -10      747            801
## # … with 28,824 more rows, and 11 more variables: arr_delay <dbl>,
## #   carrier <chr>, flight <int>, tailnum <chr>, origin <chr>, dest <chr>,
## #   air_time <dbl>, distance <dbl>, hour <dbl>, minute <dbl>, time_hour <dttm>

day ==を一回書くだけでも結果は同じ。ちなみに、OR演算の他の表現法もある。それは%in%である。 A %in% (1, 2, 3, 4)は「Aが1, 2, 3, 4どっちかに該当するか」を意味する。これを使って先のコマンドを書きなおしてみよう。

filter(flights, month == 3 & (day %in% c(10, 11)))

## # A tibble: 1,888 x 19
##     year month   day dep_time sched_dep_time dep_delay arr_time sched_arr_time
##    <int> <int> <int>    <int>          <int>     <dbl>    <int>          <int>
##  1  2013     3    10        6           2359         7      336            338
##  2  2013     3    10       41           2100       221      230           2257
##  3  2013     3    10       44           2355        49      416            340
##  4  2013     3    10      153           2253       180      302             14
##  5  2013     3    10      454            500        -6      628            648
##  6  2013     3    10      512            515        -3      742            814
##  7  2013     3    10      535            540        -5      819            850
##  8  2013     3    10      553            600        -7      815            830
##  9  2013     3    10      555            600        -5      848            910
## 10  2013     3    10      556            600        -4      801            805
## # … with 1,878 more rows, and 11 more variables: arr_delay <dbl>,
## #   carrier <chr>, flight <int>, tailnum <chr>, origin <chr>, dest <chr>,
## #   air_time <dbl>, distance <dbl>, hour <dbl>, minute <dbl>, time_hour <dttm>
…
このデータを使っては実習できないが、欠損値のあるケースを除去したい場合もあろう。 たとえば、yearが欠損値になってるケースが除去したいならfilter(flights, year == NA)で良いだろうか。

実は違う。

この場合はis.na(year)と書く。理由は聞かないでほしい。

arrange()

arrangeはケースをある基準に合わせて並べ直す関数である。

特に意味はないが、データをmonthが小さい順に並べてみよう。

arrange(flights, month)

## # A tibble: 336,776 x 19
##     year month   day dep_time sched_dep_time dep_delay arr_time sched_arr_time
##    <int> <int> <int>    <int>          <int>     <dbl>    <int>          <int>
##  1  2013     1     1      517            515         2      830            819
##  2  2013     1     1      533            529         4      850            830
##  3  2013     1     1      542            540         2      923            850
##  4  2013     1     1      544            545        -1     1004           1022
##  5  2013     1     1      554            600        -6      812            837
##  6  2013     1     1      554            558        -4      740            728
##  7  2013     1     1      555            600        -5      913            854
##  8  2013     1     1      557            600        -3      709            723
##  9  2013     1     1      557            600        -3      838            846
## 10  2013     1     1      558            600        -2      753            745
## # … with 336,766 more rows, and 11 more variables: arr_delay <dbl>,
## #   carrier <chr>, flight <int>, tailnum <chr>, origin <chr>, dest <chr>,
## #   air_time <dbl>, distance <dbl>, hour <dbl>, minute <dbl>, time_hour <dttm>

もし、大きい方から表示したいならdesc()を使う。

arrange(flights, desc(month))

## # A tibble: 336,776 x 19
##     year month   day dep_time sched_dep_time dep_delay arr_time sched_arr_time
##    <int> <int> <int>    <int>          <int>     <dbl>    <int>          <int>
##  1  2013    12     1       13           2359        14      446            445
##  2  2013    12     1       17           2359        18      443            437
##  3  2013    12     1      453            500        -7      636            651
##  4  2013    12     1      520            515         5      749            808
##  5  2013    12     1      536            540        -4      845            850
##  6  2013    12     1      540            550       -10     1005           1027
##  7  2013    12     1      541            545        -4      734            755
##  8  2013    12     1      546            545         1      826            835
##  9  2013    12     1      549            600       -11      648            659
## 10  2013    12     1      550            600       -10      825            854
## # … with 336,766 more rows, and 11 more variables: arr_delay <dbl>,
## #   carrier <chr>, flight <int>, tailnum <chr>, origin <chr>, dest <chr>,
## #   air_time <dbl>, distance <dbl>, hour <dbl>, minute <dbl>, time_hour <dttm>

次は「monthの順で並べて、もし同じなら、次はdayの順で並べたい」である。どうすればいいだろうか。実はこれも簡単だ。 条件式に次の基準となる変数名を入れるだけでいい。

arrange(flights, month, day)

## # A tibble: 336,776 x 19
##     year month   day dep_time sched_dep_time dep_delay arr_time sched_arr_time
##    <int> <int> <int>    <int>          <int>     <dbl>    <int>          <int>
##  1  2013     1     1      517            515         2      830            819
##  2  2013     1     1      533            529         4      850            830
##  3  2013     1     1      542            540         2      923            850
##  4  2013     1     1      544            545        -1     1004           1022
##  5  2013     1     1      554            600        -6      812            837
##  6  2013     1     1      554            558        -4      740            728
##  7  2013     1     1      555            600        -5      913            854
##  8  2013     1     1      557            600        -3      709            723
##  9  2013     1     1      557            600        -3      838            846
## 10  2013     1     1      558            600        -2      753            745
## # … with 336,766 more rows, and 11 more variables: arr_delay <dbl>,
## #   carrier <chr>, flight <int>, tailnum <chr>, origin <chr>, dest <chr>,
## #   air_time <dbl>, distance <dbl>, hour <dbl>, minute <dbl>, time_hour <dttm>

これを「monthは12から1へ、dayも31から1の順で並べたい」と思うなら

arrange(flights, desc(month), desc(day))

## # A tibble: 336,776 x 19
##     year month   day dep_time sched_dep_time dep_delay arr_time sched_arr_time
##    <int> <int> <int>    <int>          <int>     <dbl>    <int>          <int>
##  1  2013    12    31       13           2359        14      439            437
##  2  2013    12    31       18           2359        19      449            444
##  3  2013    12    31       26           2245       101      129           2353
##  4  2013    12    31      459            500        -1      655            651
##  5  2013    12    31      514            515        -1      814            812
##  6  2013    12    31      549            551        -2      925            900
##  7  2013    12    31      550            600       -10      725            745
##  8  2013    12    31      552            600        -8      811            826
##  9  2013    12    31      553            600        -7      741            754
## 10  2013    12    31      554            550         4     1024           1027
## # … with 336,766 more rows, and 11 more variables: arr_delay <dbl>,
## #   carrier <chr>, flight <int>, tailnum <chr>, origin <chr>, dest <chr>,
## #   air_time <dbl>, distance <dbl>, hour <dbl>, minute <dbl>, time_hour <dttm>

最後に、欠損値(NA)は常に一番最後の行になる。

select()

これは指定した変数のみを抽出する関数である。

まず、year, month, day列のみを抽出してみよう。

select(flights, year, month, day)

## # A tibble: 336,776 x 3
##     year month   day
##    <int> <int> <int>
##  1  2013     1     1
##  2  2013     1     1
##  3  2013     1     1
##  4  2013     1     1
##  5  2013     1     1
##  6  2013     1     1
##  7  2013     1     1
##  8  2013     1     1
##  9  2013     1     1
## 10  2013     1     1
## # … with 336,766 more rows

このように隣接している変数同士なら:が使える。year:dayは「yearからdayまで」という意味だ。

select(flights, year:day)

## # A tibble: 336,776 x 3
##     year month   day
##    <int> <int> <int>
##  1  2013     1     1
##  2  2013     1     1
##  3  2013     1     1
##  4  2013     1     1
##  5  2013     1     1
##  6  2013     1     1
##  7  2013     1     1
##  8  2013     1     1
##  9  2013     1     1
## 10  2013     1     1
## # … with 336,766 more rows

yearからdayまで表示するのではなくyearからdayまでを表示させないこともできる。その時に使うのが-である。

select(flights, -(year:day))

## # A tibble: 336,776 x 16
##    dep_time sched_dep_time dep_delay arr_time sched_arr_time arr_delay carrier
##       <int>          <int>     <dbl>    <int>          <int>     <dbl> <chr>  
##  1      517            515         2      830            819        11 UA     
##  2      533            529         4      850            830        20 UA     
##  3      542            540         2      923            850        33 AA     
##  4      544            545        -1     1004           1022       -18 B6     
##  5      554            600        -6      812            837       -25 DL     
##  6      554            558        -4      740            728        12 UA     
##  7      555            600        -5      913            854        19 B6     
##  8      557            600        -3      709            723       -14 EV     
##  9      557            600        -3      838            846        -8 B6     
## 10      558            600        -2      753            745         8 AA     
## # … with 336,766 more rows, and 9 more variables: flight <int>, tailnum <chr>,
## #   origin <chr>, dest <chr>, air_time <dbl>, distance <dbl>, hour <dbl>,
## #   minute <dbl>, time_hour <dttm>

-year:dayでなく、-(year:day)であることに注意しよう。もし:を使わないなら-c(year, month, day)のように書く。

select(flights, -c(year, month, day))

## # A tibble: 336,776 x 16
##    dep_time sched_dep_time dep_delay arr_time sched_arr_time arr_delay carrier
##       <int>          <int>     <dbl>    <int>          <int>     <dbl> <chr>  
##  1      517            515         2      830            819        11 UA     
##  2      533            529         4      850            830        20 UA     
##  3      542            540         2      923            850        33 AA     
##  4      544            545        -1     1004           1022       -18 B6     
##  5      554            600        -6      812            837       -25 DL     
##  6      554            558        -4      740            728        12 UA     
##  7      555            600        -5      913            854        19 B6     
##  8      557            600        -3      709            723       -14 EV     
##  9      557            600        -3      838            846        -8 B6     
## 10      558            600        -2      753            745         8 AA     
## # … with 336,766 more rows, and 9 more variables: flight <int>, tailnum <chr>,
## #   origin <chr>, dest <chr>, air_time <dbl>, distance <dbl>, hour <dbl>,
## #   minute <dbl>, time_hour <dttm>
…
変数名にLMNが含まれている変数

matches("(.)\\1")

正規表現パターン

num_range("X", 1:3)

X1, X2, X3

まずは、変数名がdepで始まる変数のみを抽出してみる。

select(flights, starts_with("dep"))

## # A tibble: 336,776 x 2
##    dep_time dep_delay
##       <int>     <dbl>
##  1      517         2
##  2      533         4
##  3      542         2
##  4      544        -1
##  5      554        -6
##  6      554        -4
##  7      555        -5
##  8      557        -3
##  9      557        -3
## 10      558        -2
## # … with 336,766 more rows

続いて、変数名がtimeで終わるやつ

select(flights, ends_with("time"))

## # A tibble: 336,776 x 5
##    dep_time sched_dep_time arr_time sched_arr_time air_time
##       <int>          <int>    <int>          <int>    <dbl>
##  1      517            515      830            819      227
##  2      533            529      850            830      227
##  3      542            540      923            850      160
##  4      544            545     1004           1022      183
##  5      554            600      812            837      116
##  6      554            558      740            728      150
##  7      555            600      913            854      158
##  8      557            600      709            723       53
##  9      557            600      838            846      140
## 10      558            600      753            745      138
## # … with 336,766 more rows

最後に_(アンダーバー)が含まれているやつ

select(flights, contains("_"))

## # A tibble: 336,776 x 8
##    dep_time sched_dep_time dep_delay arr_time sched_arr_time arr_delay air_time
##       <int>          <int>     <dbl>    <int>          <int>     <dbl>    <dbl>
##  1      517            515         2      830            819        11      227
##  2      533            529         4      850            830        20      227
##  3      542            540         2      923            850        33      160
##  4      544            545        -1     1004           1022       -18      183
##  5      554            600        -6      812            837       -25      116
##  6      554            558        -4      740            728        12      150
##  7      555            600        -5      913            854        19      158
##  8      557            600        -3      709            723       -14       53
##  9      557            600        -3      838            846        -8      140
## 10      558            600        -2      753            745         8      138
## # … with 336,766 more rows, and 1 more variable: time_hour <dttm>

matchesに関しては私も詳しくない。正規表現を使う時はいつもネットを参照しているので…

num_rangeはこのデータでは使えないがselect(data, num_range("X", 3:5))と書いたら、dataというデータからX3, X4, X5のみを抽出せよという意味である。

個人的にあまり使わない機能だが、抽出後、新しい名前を付けることもできる。

select(flights, 年 = year, 月 = month, 日 = day)

## # A tibble: 336,776 x 3
##       年    月    日
##    <int> <int> <int>
##  1  2013     1     1
##  2  2013     1     1
##  3  2013     1     1
##  4  2013     1     1
##  5  2013     1     1
##  6  2013     1     1
##  7  2013     1     1
##  8  2013     1     1
##  9  2013     1     1
## 10  2013     1     1
## # … with 336,766 more rows

mutate()

mutateはデータを計算し、その結果を新しい変数として格納する関数である。

使い方はmutate(データ, 新しい変数名 = 計算式)である。

とくに意味はないが、年(year)を2倍にし、double_yearという変数として表示させてみよう。 (変数が多すぎて画面上に表示されないので、yearからdayまで抽出したデータ(flights2)を使う。)

flights2 <- select(flights, year:day)
mutate(flights2, doble_year = year * 2)

## # A tibble: 336,776 x 4
##     year month   day doble_year
##    <int> <int> <int>      <dbl>
##  1  2013     1     1       4026
##  2  2013     1     1       4026
##  3  2013     1     1       4026
##  4  2013     1     1       4026
##  5  2013     1     1       4026
##  6  2013     1     1       4026
##  7  2013     1     1       4026
##  8  2013     1     1       4026
##  9  2013     1     1       4026
## 10  2013     1     1       4026
## # … with 336,766 more rows
…
