情報処理応用演習: 期末課題
…
一人当たりGDPを計算し、GDP_per_capitaという名の新しい列に格納する。GDP_per_capitaは列はGDPとContinent列の間へ移動させる。

GDPの単位は100万ドルであることに注意

\[
一人当たり\text{GDP} = \frac{\text{GDP} \times 1000000}{人口}.
\]

ここまでの処理を確認するために改めてSES_dfを出力する。

SES_df

## # A tibble: 185 x 7
##    Country           Population    Area Density     GDP GDP_per_capita Continent
##    <chr>                  <dbl>   <dbl>   <dbl>   <dbl>          <dbl> <chr>    
##  1 Afghanistan         38928346  652860   59.6   1.91e4           491. Asia     
##  2 Albania              2877797   27400  105.    1.53e4          5309. Europe   
##  3 Algeria             43851044 2381740   18.4   1.70e5          3876. Africa   
##  4 Andorra                77265     470  164.    3.15e3         40821. Europe   
##  5 Angola              32866272 1246700   26.4   9.46e4          2879. Africa   
##  6 Antigua and Barb…      97929     440  223.    1.73e3         17643. America  
##  7 Argentina           45195774 2736690   16.5   4.50e5          9949. America  
##  8 Armenia              2963243   28470  104.    1.37e4          4614. Europe   
##  9 Australia           25499884 7682300    3.32  1.39e6         54615. Oceania  
## 10 Austria              9006398   82409  109.    4.46e5         49555. Europe   
## # … with 175 more rows
…
Country_dfからMean_yrs_of_schooling、GIN_per_capita変数を除外する。

Expected_yrs_of_schoolingとLife_expectancy_at_birthの変数名をそれぞれEducation、Lifeに変更する。

修正済みのCountry_dfの中身を出力する。

Country_df

## # A tibble: 185 x 10
##    Country Population   Area Density    GDP GDP_per_capita Continent   HDI  Life
##    <chr>        <dbl>  <dbl>   <dbl>  <dbl>          <dbl> <chr>     <dbl> <dbl>
##  1 Afghan…   38928346 6.53e5   59.6  1.91e4           491. Asia      0.496  64.5
##  2 Albania    2877797 2.74e4  105.   1.53e4          5309. Europe    0.791  78.5
##  3 Algeria   43851044 2.38e6   18.4  1.70e5          3876. Africa    0.759  76.7
##  4 Andorra      77265 4.70e2  164.   3.15e3         40821. Europe    0.857  81.8
##  5 Angola    32866272 1.25e6   26.4  9.46e4          2879. Africa    0.574  60.8
##  6 Antigu…      97929 4.40e2  223.   1.73e3         17643. America   0.776  76.9
##  7 Argent…   45195774 2.74e6   16.5  4.50e5          9949. America   0.83   76.5
##  8 Armenia    2963243 2.85e4  104.   1.37e4          4614. Europe    0.76   74.9
##  9 Austra…   25499884 7.68e6    3.32 1.39e6         54615. Oceania   0.938  83.3
## 10 Austria    9006398 8.24e4  109.   4.46e5         49555. Europe    0.914  81.4
## # … with 175 more rows, and 1 more variable: Education <dbl>
…
G7: G7加盟有無 (0: No / 1: Yes)

G20: G29加盟有無 (0: No / 1: Yes)

OECD: OECD加盟有無 (0: No / 1: Yes)

Freedom: Freedom House指数（民主主義指標の1つ）

G7、G20、OECD列の数値を足し、Developedという名の列として追加する。

Politics_dfを出力し、Developed列が追加されたことを確認する。

Politics_df

## # A tibble: 186 x 6
##    Country                G7   G20  OECD Freedom Developed
##    <chr>               <dbl> <dbl> <dbl>   <dbl>     <dbl>
##  1 Afghanistan             0     0     0      27         0
##  2 Albania                 0     0     0      67         0
##  3 Algeria                 0     0     0      34         0
##  4 Andorra                 0     0     0      94         0
##  5 Angola                  0     0     0      32         0
##  6 Antigua and Barbuda     0     0     0      85         0
##  7 Argentina               0     1     0      85         1
##  8 Armenia                 0     0     0      53         0
##  9 Australia               0     1     1      97         2
## 10 Austria                 0     0     1      93         1
## # … with 176 more rows

Developedの値が1以上なら"Developed" (先進国)、0なら"Developing" (開発途上国)へ置換する。

Politics_dfを出力し、Developed列が修正されたことを確認する。

Politics_df

## # A tibble: 186 x 6
##    Country                G7   G20  OECD Freedom Developed 
##    <chr>               <dbl> <dbl> <dbl>   <dbl> <chr>     
##  1 Afghanistan             0     0     0      27 Developing
##  2 Albania                 0     0     0      67 Developing
##  3 Algeria                 0     0     0      34 Developing
##  4 Andorra                 0     0     0      94 Developing
##  5 Angola                  0     0     0      32 Developing
##  6 Antigua and Barbuda     0     0     0      85 Developing
##  7 Argentina               0     1     0      85 Developed 
##  8 Armenia                 0     0     0      53 Developing
##  9 Australia               0     1     1      97 Developed 
## 10 Austria                 0     0     1      93 Developed 
## # … with 176 more rows
…
4. COVID19_Worldwide.csvの処理と可視化

COVID_Worldwide.csvファイルを読み込み、COVID_dfという名のオブジェクトに格納する。

Country: 国家名

各列は当該年月日におけるCOVID-19累積感染者数を意味する。

データの中身を確認する。

COVID_df

## # A tibble: 186 x 172
##    Country `2020/1/22` `2020/1/23` `2020/1/24` `2020/1/25` `2020/1/26`
##    <chr>         <dbl>       <dbl>       <dbl>       <dbl>       <dbl>
##  1 Afghan…           0           0           0           0           0
##  2 Albania           0           0           0           0           0
##  3 Algeria           0           0           0           0           0
##  4 Andorra           0           0           0           0           0
##  5 Angola            0           0           0           0           0
##  6 Antigu…           0           0           0           0           0
##  7 Argent…           0           0           0           0           0
##  8 Armenia           0           0           0           0           0
##  9 Austra…           0           0           0           0           4
## 10 Austria           0           0           0           0           0
## # … with 176 more rows, and 166 more variables: `2020/1/27` <dbl>,
## #   `2020/1/28` <dbl>, `2020/1/29` <dbl>, `2020/1/30` <dbl>, `2020/1/31` <dbl>,
## #   `2020/2/1` <dbl>, `2020/2/2` <dbl>, `2020/2/3` <dbl>, `2020/2/4` <dbl>,
## #   `2020/2/5` <dbl>, `2020/2/6` <dbl>, `2020/2/7` <dbl>, `2020/2/8` <dbl>,
## #   `2020/2/9` <dbl>, `2020/2/10` <dbl>, `2020/2/11` <dbl>, `2020/2/12` <dbl>,
## #   `2020/2/13` <dbl>, `2020/2/14` <dbl>, `2020/2/15` <dbl>, `2020/2/16` <dbl>,
## #   `2020/2/17` <dbl>, `2020/2/18` <dbl>, `2020/2/19` <dbl>, `2020/2/20` <dbl>,
## #   `2020/2/21` <dbl>, `2020/2/22` <dbl>, `2020/2/23` <dbl>, `2020/2/24` <dbl>,
## #   `2020/2/25` <dbl>, `2020/2/26` <dbl>, `2020/2/27` <dbl>, `2020/2/28` <dbl>,
…
データをWide型からLong型へ変換する。年月日はDate列、新規感染者数はConfirmed列とする。

変数は"2020/1/22"から"2020/7/10"までである。

Date変数をDate型へ変換する。

データから日本（"Japan"）、韓国（"South Korea"）、シンガポール（"Singapore"）、スイス（"Switzerland"）のみを抽出する。抽出したデータはCOVID_df2という名のオブジェクトとして格納する。

変換後のデータを確認する。

COVID_df2

## # A tibble: 684 x 3
##    Country Date       Confirmed
##    <chr>   <date>         <dbl>
##  1 Japan   2020-01-22         2
##  2 Japan   2020-01-23         2
##  3 Japan   2020-01-24         2
##  4 Japan   2020-01-25         2
##  5 Japan   2020-01-26         4
##  6 Japan   2020-01-27         4
##  7 Japan   2020-01-28         7
##  8 Japan   2020-01-29         7
##  9 Japan   2020-01-30        11
## 10 Japan   2020-01-31        15
## # … with 674 more rows
…
COVID_dfから（COVID_df2ではない）年月日が2020年7月10日（"2020-07-10"）である行のみ抽出し、Date列を除外する。結果をCOVID_df3という名のオブジェクトとして格納する。

COVID_df3を累積感染者数が多い順でソートする。

## # A tibble: 186 x 2
##    Country        Confirmed
##    <chr>              <dbl>
##  1 United States    3184582
##  2 Brazil           1800827
##  3 India             820916
##  4 Russia            712863
##  5 Peru              319646
##  6 Chile             309274
##  7 United Kingdom    289678
##  8 Mexico            289174
##  9 Spain             253908
## 10 Iran              252720
## # … with 176 more rows
…
