情報処理応用演習
…
## 中身の確認

オブジェクト名を入力するだけ
* 最初の10行が表示される
* 出力する行数を指定したい場合、`print(オブジェクト名, n = 行数)`
* `head()`: 最初の6行、`tail()`: 最後の6行

```r
# FIFA_dfの最初の5行を出力
print(FIFA_df, n = 5)
```

```
## # A tibble: 210 x 6
##      ID Team            Rank Points Prev_Points Confederation
##   <dbl> <chr>          <dbl>  <dbl>       <dbl> <chr>        
## 1     1 Afghanistan      149   1052        1052 AFC          
## 2     2 Albania           66   1356        1356 UEFA         
## 3     3 Algeria           35   1482        1482 CAF          
## 4     4 American Samoa   192    900         900 OFC          
## 5     5 Andorra          135   1082        1082 UEFA         
## # … with 205 more rows
```
…
## 列の抽出 (2)

`オブジェクト名[, 列名]`で抽出
* 複数の列を抽出する場合

```r
# FIFA_dfのTeam, Rank, Points列
# , の位置に注意
*Rank_df <- FIFA_df[, c("Team", "Rank", "Points")]
print(Rank_df, n = 5)
```

```
## # A tibble: 210 x 3
##   Team            Rank Points
##   <chr>          <dbl>  <dbl>
## 1 Afghanistan      149   1052
## 2 Albania           66   1356
## 3 Algeria           35   1482
## 4 American Samoa   192    900
## 5 Andorra          135   1082
## # … with 205 more rows
```
---

## 列の抽出 (3)

`オブジェクト名[, 列番号]`で抽出

```r
# FIFA_dfの2, 3, 6番目列
# , の位置に注意
*Rank_df <- FIFA_df[, c(2, 3, 6)]
print(Rank_df, n = 5)
```

```
## # A tibble: 210 x 3
##   Team            Rank Confederation
##   <chr>          <dbl> <chr>        
## 1 Afghanistan      149 AFC          
## 2 Albania           66 UEFA         
## 3 Algeria           35 CAF          
## 4 American Samoa   192 OFC          
## 5 Andorra          135 UEFA         
## # … with 205 more rows
```
…
