情報処理応用演習
…
## 例) データの用意

```r
library(tidyverse)
Country_df <- read_csv("Data/Countries.csv")

Country_df2 <- Country_df %>%
  mutate(OECD2 = ifelse(OECD == 1, "加盟国", "非加盟国")) %>%
  select(Country, PPP = PPP_per_capita, HDI = HDI_2018, OECD = OECD2)

Country_df2
```

```
## # A tibble: 186 x 4
##    Country                PPP   HDI OECD    
##    <chr>                <dbl> <dbl> <chr>   
##  1 Afghanistan          2125. 0.496 非加盟国
##  2 Albania             13781. 0.791 非加盟国
##  3 Algeria             11324. 0.759 非加盟国
##  4 Andorra                NA  0.857 非加盟国
##  5 Angola               6649. 0.574 非加盟国
##  6 Antigua and Barbuda 21267. 0.776 非加盟国
##  7 Argentina           22938. 0.83  非加盟国
##  8 Armenia             12974. 0.76  非加盟国
##  9 Australia           50001. 0.938 加盟国  
## 10 Austria             55824. 0.914 加盟国  
## # … with 176 more rows
```
…
