情報処理応用演習
…
---

# 実習用データ

[Countries.csv](Data/Countries.csv): 186カ国の社会経済・政治体制のデータ

```r
df <- read_csv("Data/Countries.csv")
print(df, n = 5)
```

```
## # A tibble: 186 x 18
##   Country Population   Area    GDP     PPP GDP_per_capita
##   <chr>        <dbl>  <dbl>  <dbl>   <dbl>          <dbl>
## 1 Afghan…   38928346 6.53e5 1.91e4  82737.           491.
## 2 Albania    2877797 2.74e4 1.53e4  39658.          5309.
## 3 Algeria   43851044 2.38e6 1.70e5 496572.          3876.
## 4 Andorra      77265 4.70e2 3.15e3     NA          40821.
## 5 Angola    32866272 1.25e6 9.46e4 218533.          2879.
## # … with 181 more rows, and 12 more variables: PPP_per_capita <dbl>,
## #   G7 <dbl>, G20 <dbl>, OECD <dbl>, HDI_2018 <dbl>,
## #   Polity_Score <dbl>, Polity_Type <chr>, FH_PR <dbl>, FH_CL <dbl>,
## #   FH_Total <dbl>, FH_Status <chr>, Continent <chr>
```
…
## 列の選択

`select()`関数を使用
* 書き方: `select(データ, 変数名1, 変数名2, ...)`
* 推奨: `データ %>% select(変数名1, 変数名2, ...)`

```r
# dfからCountry, Population, Area, GDP, PPP, HDI_2018列を抽出
df %>%
* select(Country, Population, Area, GDP, PPP, HDI_2018) %>%
  print(n = 5)
```

```
## # A tibble: 186 x 6
##   Country     Population    Area     GDP     PPP HDI_2018
##   <chr>            <dbl>   <dbl>   <dbl>   <dbl>    <dbl>
## 1 Afghanistan   38928346  652860  19101.  82737.    0.496
## 2 Albania        2877797   27400  15278.  39658.    0.791
## 3 Algeria       43851044 2381740 169988. 496572.    0.759
## 4 Andorra          77265     470   3154.     NA     0.857
## 5 Angola        32866272 1246700  94635. 218533.    0.574
## # … with 181 more rows
```
---

## 変数指定の方法 (1)
* 隣接した列を選択する: 「`:`」
* `Country`から`PPP`列は隣接している-> `Country:PPP`

```r
# dfからCountry~PPP, HDI_2018列を抽出
df %>%
* select(Country:PPP, HDI_2018) %>%
  print(n = 5)
```

```
## # A tibble: 186 x 6
##   Country     Population    Area     GDP     PPP HDI_2018
##   <chr>            <dbl>   <dbl>   <dbl>   <dbl>    <dbl>
## 1 Afghanistan   38928346  652860  19101.  82737.    0.496
## 2 Albania        2877797   27400  15278.  39658.    0.791
## 3 Algeria       43851044 2381740 169988. 496572.    0.759
## 4 Andorra          77265     470   3154.     NA     0.857
## 5 Angola        32866272 1246700  94635. 218533.    0.574
## # … with 181 more rows
```
…
## 変数指定の方法 (2)
* 特定の文字列で始まる列を選択: `starts_with()`
  * 特定の文字列で終わる列を選択: `ends_with()`
  * 特定の文字列を含む列を選択: `contains()`
* FHで始まる列の選択 -> `starts_with("FH")`

```r
# dfからCountry列, FHで始まる列を抽出
df %>%
* select(Country, starts_with("FH")) %>%
  print(n = 5)
```

```
## # A tibble: 186 x 5
##   Country     FH_PR FH_CL FH_Total FH_Status
##   <chr>       <dbl> <dbl>    <dbl> <chr>    
## 1 Afghanistan    13    14       27 NF       
## 2 Albania        27    40       67 PF       
## 3 Algeria        10    24       34 NF       
## 4 Andorra        39    55       94 F        
## 5 Angola         11    21       32 NF       
## # … with 181 more rows
```
…
## 変数指定の方法 (3)

* 特定の列を除外する: `!`または`-`
  * `:`、`starts_with()`などと組み合わせることも可能

```r
# dfからGDP_per_capita~FH_Status列を除外
df %>%
* select(!GDP_per_capita:FH_Status) %>%
  print(n = 5)
```

```
## # A tibble: 186 x 6
##   Country     Population    Area     GDP     PPP Continent
##   <chr>            <dbl>   <dbl>   <dbl>   <dbl> <chr>    
## 1 Afghanistan   38928346  652860  19101.  82737. Asia     
## 2 Albania        2877797   27400  15278.  39658. Europe   
## 3 Algeria       43851044 2381740 169988. 496572. Africa   
## 4 Andorra          77265     470   3154.     NA  Europe   
## 5 Angola        32866272 1246700  94635. 218533. Africa   
## # … with 181 more rows
```
…
* 抽出と同時に行うには`select()`内に`=`を使用
* 列名のみ変更の場合は、変更しない列も指定する必要があるため、やや面倒
* `Population`を`Jinko`へ、`Area`を`Menseki`へ変更

```r
df %>%
* select(Country,
*        Jinko = Population, Menseki = Area,
*        GDP:Continent) %>%
  print(n = 5)
```

```
## # A tibble: 186 x 18
##   Country  Jinko Menseki    GDP     PPP GDP_per_capita PPP_per_capita    G7
##   <chr>    <dbl>   <dbl>  <dbl>   <dbl>          <dbl>          <dbl> <dbl>
## 1 Afghan… 3.89e7  652860 1.91e4  82737.           491.          2125.     0
## 2 Albania 2.88e6   27400 1.53e4  39658.          5309.         13781.     0
## 3 Algeria 4.39e7 2381740 1.70e5 496572.          3876.         11324.     0
## 4 Andorra 7.73e4     470 3.15e3     NA          40821.            NA      0
## 5 Angola  3.29e7 1246700 9.46e4 218533.          2879.          6649.     0
## # … with 181 more rows, and 10 more variables: G20 <dbl>, OECD <dbl>,
## #   HDI_2018 <dbl>, Polity_Score <dbl>, Polity_Type <chr>, FH_PR <dbl>,
## #   FH_CL <dbl>, FH_Total <dbl>, FH_Status <chr>, Continent <chr>
```
…
## 変数名 (列名)の変更: `reanme()`

* `select()`と`=`の組み合わせと書き方は同じ
  * ただし、変更しない列名は指定しなくてもOK
* `Population`を`Jinko`へ、`Area`を`Menseki`へ変更

```r
df %>%
* rename(Jinko = Population, Menseki = Area) %>%
  print(n = 5)
```

```
## # A tibble: 186 x 18
##   Country  Jinko Menseki    GDP     PPP GDP_per_capita PPP_per_capita    G7
##   <chr>    <dbl>   <dbl>  <dbl>   <dbl>          <dbl>          <dbl> <dbl>
## 1 Afghan… 3.89e7  652860 1.91e4  82737.           491.          2125.     0
## 2 Albania 2.88e6   27400 1.53e4  39658.          5309.         13781.     0
## 3 Algeria 4.39e7 2381740 1.70e5 496572.          3876.         11324.     0
## 4 Andorra 7.73e4     470 3.15e3     NA          40821.            NA      0
## 5 Angola  3.29e7 1246700 9.46e4 218533.          2879.          6649.     0
## # … with 181 more rows, and 10 more variables: G20 <dbl>, OECD <dbl>,
## #   HDI_2018 <dbl>, Polity_Score <dbl>, Polity_Type <chr>, FH_PR <dbl>,
## #   FH_CL <dbl>, FH_Total <dbl>, FH_Status <chr>, Continent <chr>
```
…
---

## 列の順番変更: `select()`

`G7`から`OECD`列を`Country`と`Population`の間へ移動

```r
df %>%
* select(Country, G7:OECD,
         Population:PPP_per_capita, HDI_2018:Continent)
```

```
## # A tibble: 186 x 18
##    Country    G7   G20  OECD Population   Area    GDP     PPP GDP_per_capita
##    <chr>   <dbl> <dbl> <dbl>      <dbl>  <dbl>  <dbl>   <dbl>          <dbl>
##  1 Afghan…     0     0     0   38928346 6.53e5 1.91e4  8.27e4           491.
##  2 Albania     0     0     0    2877797 2.74e4 1.53e4  3.97e4          5309.
##  3 Algeria     0     0     0   43851044 2.38e6 1.70e5  4.97e5          3876.
##  4 Andorra     0     0     0      77265 4.70e2 3.15e3 NA              40821.
##  5 Angola      0     0     0   32866272 1.25e6 9.46e4  2.19e5          2879.
##  6 Antigu…     0     0     0      97929 4.40e2 1.73e3  2.08e3         17643.
##  7 Argent…     0     1     0   45195774 2.74e6 4.50e5  1.04e6          9949.
##  8 Armenia     0     0     0    2963243 2.85e4 1.37e4  3.84e4          4614.
##  9 Austra…     0     1     1   25499884 7.68e6 1.39e6  1.28e6         54615.
## 10 Austria     0     0     1    9006398 8.24e4 4.46e5  5.03e5         49555.
## # … with 176 more rows, and 9 more variables: PPP_per_capita <dbl>,
## #   HDI_2018 <dbl>, Polity_Score <dbl>, Polity_Type <chr>, FH_PR <dbl>,
## #   FH_CL <dbl>, FH_Total <dbl>, FH_Status <chr>, Continent <chr>
```
---

## 列の順番変更: `relocate()`

`G7`から`OECD`列を`Country`の後ろへ移動
* `.after = Country`を指定 (`.`に注意)
* `.before = Population`もOK

```r
df %>%
* relocate(G7:OECD, .after = Country)
```

```
## # A tibble: 186 x 18
##    Country    G7   G20  OECD Population   Area    GDP     PPP GDP_per_capita
##    <chr>   <dbl> <dbl> <dbl>      <dbl>  <dbl>  <dbl>   <dbl>          <dbl>
##  1 Afghan…     0     0     0   38928346 6.53e5 1.91e4  8.27e4           491.
##  2 Albania     0     0     0    2877797 2.74e4 1.53e4  3.97e4          5309.
##  3 Algeria     0     0     0   43851044 2.38e6 1.70e5  4.97e5          3876.
##  4 Andorra     0     0     0      77265 4.70e2 3.15e3 NA              40821.
##  5 Angola      0     0     0   32866272 1.25e6 9.46e4  2.19e5          2879.
##  6 Antigu…     0     0     0      97929 4.40e2 1.73e3  2.08e3         17643.
##  7 Argent…     0     1     0   45195774 2.74e6 4.50e5  1.04e6          9949.
##  8 Armenia     0     0     0    2963243 2.85e4 1.37e4  3.84e4          4614.
##  9 Austra…     0     1     1   25499884 7.68e6 1.39e6  1.28e6         54615.
## 10 Austria     0     0     1    9006398 8.24e4 4.46e5  5.03e5         49555.
## # … with 176 more rows, and 9 more variables: PPP_per_capita <dbl>,
## #   HDI_2018 <dbl>, Polity_Score <dbl>, Polity_Type <chr>, FH_PR <dbl>,
## #   FH_CL <dbl>, FH_Total <dbl>, FH_Status <chr>, Continent <chr>
```
…
`filter()`関数を使用
* 書き方: `filter(データ, 条件1, 条件2, ...)`
* 推奨: `データ %>% filter(条件1, 条件2, ...)`

```r
# dfからContinentが"Europe"の行を抽出し、Country~PPP, HDI_2018列を抽出
df %>%
* filter(Continent == "Europe") %>%
  select(Country:PPP, HDI_2018) %>%
  print(n = 5)
```

```
## # A tibble: 50 x 6
##   Country    Population  Area     GDP     PPP HDI_2018
##   <chr>           <dbl> <dbl>   <dbl>   <dbl>    <dbl>
## 1 Albania       2877797 27400  15278.  39658.    0.791
## 2 Andorra         77265   470   3154.     NA     0.857
## 3 Armenia       2963243 28470  13673.  38446.    0.76 
## 4 Austria       9006398 82409 446315. 502771.    0.914
## 5 Azerbaijan   10139177 82658  48048. 144556.    0.754
## # … with 45 more rows
```
…
## 行のソート

`df`からアフリカのみを抽出し、`Polity_Score`が低い行を上位にする。そして、`Country`と`PPP`列のみ残す。
* Polity Scoreが高い (低い) = より民主主義 (権威主義)に近い

```r
df %>%
  filter(Continent == "Africa") %>%
* arrange(Polity_Score) %>%
  select(Country, Polity_Score)
```

```
## # A tibble: 54 x 2
##    Country             Polity_Score
##    <chr>                      <dbl>
##  1 Eswatini                      -9
##  2 Eritrea                       -7
##  3 Equatorial Guinea             -6
##  4 Cameroon                      -4
##  5 Congo (Brazzaville)           -4
##  6 Egypt                         -4
##  7 Morocco                       -4
##  8 Sudan                         -4
##  9 Comoros                       -3
## 10 Congo (Kinshasa)              -3
## # … with 44 more rows
```
…
* `df`からアフリカのみを抽出し、`Polity_Score`が低い行を上位に
* `Polity_Score`が同点の場合、`PPP_per_capita`が高い行を上位に
* `Country`と`Polity_Score`, `PPP_per_capita`列のみ残す
* `Polity_Score`は`Polity`に、`PPP_per_capita`は`PPP`と名前を変更

```r
df %>%
  filter(Continent == "Africa") %>%
* arrange(Polity_Score, desc(PPP_per_capita)) %>%
  select(Country, Polity = Polity_Score, PPP = PPP_per_capita)
```

```
## # A tibble: 54 x 3
##    Country             Polity    PPP
##    <chr>                <dbl>  <dbl>
##  1 Eswatini                -9  8634.
##  2 Eritrea                 -7  1860.
##  3 Equatorial Guinea       -6 19458.
##  4 Egypt                   -4 11198.
##  5 Morocco                 -4  7554.
##  6 Sudan                   -4  4063.
##  7 Cameroon                -4  3506.
##  8 Congo (Brazzaville)     -4  3191.
##  9 Comoros                 -3  3007.
## 10 Rwanda                  -3  2008.
## # … with 44 more rows
```
…
## 新しい列の追加追加: `mutate()`
* `データ %>% mutate(新しい変数名 = ベクトル)`
  * ベクトルの長さはデータの行数と一致する必要あり
* **例)** `ID`という列に1から`nrow(df)`の数列を入れ、`Country`の後へ
  * `nrow(データ)`はデータの行数を出力する関数
  * `.after`または`.before`を指定しないと、最後列へ

```r
df %>%
* mutate(ID = 1:nrow(df), .after = Country) %>%
  print(n = 5)
```

```
## # A tibble: 186 x 19
##   Country    ID Population   Area    GDP     PPP GDP_per_capita PPP_per_capita
##   <chr>   <int>      <dbl>  <dbl>  <dbl>   <dbl>          <dbl>          <dbl>
## 1 Afghan…     1   38928346 6.53e5 1.91e4  82737.           491.          2125.
## 2 Albania     2    2877797 2.74e4 1.53e4  39658.          5309.         13781.
## 3 Algeria     3   43851044 2.38e6 1.70e5 496572.          3876.         11324.
## 4 Andorra     4      77265 4.70e2 3.15e3     NA          40821.            NA 
## 5 Angola      5   32866272 1.25e6 9.46e4 218533.          2879.          6649.
## # … with 181 more rows, and 11 more variables: G7 <dbl>, G20 <dbl>,
## #   OECD <dbl>, HDI_2018 <dbl>, Polity_Score <dbl>, Polity_Type <chr>,
## #   FH_PR <dbl>, FH_CL <dbl>, FH_Total <dbl>, FH_Status <chr>, Continent <chr>
```
…
`データ %>% mutate(新しい変数名 = ベクトル)`

* `ベクトル`はデータの行数と一致するものなら何でも良い
* `df$Population / df$Area`の場合、データの行数と一致するベクトルが出力される
  * 計算式を入れることが可能 (こちらが主な使い方)

```r
# PopulationをAreaで割った値をDensity列に格納し、Areaの後に
df %>%
* mutate(Density = Population / Area, .after = Area)
```

```
## # A tibble: 186 x 19
##    Country Population   Area Density    GDP     PPP GDP_per_capita
##    <chr>        <dbl>  <dbl>   <dbl>  <dbl>   <dbl>          <dbl>
##  1 Afghan…   38928346 6.53e5   59.6  1.91e4  8.27e4           491.
##  2 Albania    2877797 2.74e4  105.   1.53e4  3.97e4          5309.
##  3 Algeria   43851044 2.38e6   18.4  1.70e5  4.97e5          3876.
##  4 Andorra      77265 4.70e2  164.   3.15e3 NA              40821.
##  5 Angola    32866272 1.25e6   26.4  9.46e4  2.19e5          2879.
##  6 Antigu…      97929 4.40e2  223.   1.73e3  2.08e3         17643.
##  7 Argent…   45195774 2.74e6   16.5  4.50e5  1.04e6          9949.
##  8 Armenia    2963243 2.85e4  104.   1.37e4  3.84e4          4614.
##  9 Austra…   25499884 7.68e6    3.32 1.39e6  1.28e6         54615.
## 10 Austria    9006398 8.24e4  109.   4.46e5  5.03e5         49555.
## # … with 176 more rows, and 12 more variables: PPP_per_capita <dbl>, G7 <dbl>,
## #   G20 <dbl>, OECD <dbl>, HDI_2018 <dbl>, Polity_Score <dbl>,
## #   Polity_Type <chr>, FH_PR <dbl>, FH_CL <dbl>, FH_Total <dbl>,
## #   FH_Status <chr>, Continent <chr>
```
…
```r
# %>%が多すぎても可読性が落ちるので適宜、オブジェクトとして保存しながら進める
df2 <- df %>%
  filter(Population >= 10000000, Continent == "Asia") %>%
* mutate(Density = Population / Area, .after = Area)
df2 %>% 
  arrange(desc(Density)) %>%
  select(Country:PPP)
```

--

```
## # A tibble: 25 x 6
##    Country     Population    Area Density      GDP      PPP
##    <chr>            <dbl>   <dbl>   <dbl>    <dbl>    <dbl>
##  1 Bangladesh   164689383  130170   1265.  302571.  734108.
##  2 Taiwan        23816775   35410    673.  589391  1099030 
##  3 South Korea   51269185   97230    527. 1642383. 2046766.
##  4 India       1380004385 2973190    464. 2875142. 9058692.
##  5 Philippines  109581078  298170    368.  376796.  887474.
##  6 Japan        126476461  364555    347. 5081770. 5247581.
##  7 Sri Lanka     21413249   62710    341.   84009.  287228.
##  8 Vietnam       97338579  310070    314.  261921.  742462.
##  9 Pakistan     220892340  770880    287.  278222. 1030292.
## 10 Nepal         29136808  143350    203.   30641.   93550.
## # … with 15 more rows
```
…
先進国か否かを表す`Developed`列を追加
* G7, G20, OECDのいずれかに加入している場合、「先進国」と定義
* G7, G20, OECD加入有無は0/1 -> この合計を`Developed`として格納
* `Developed`が1以上なら`"Developed Country"`、0なら`"Etc"`とする
  * `ifelse()`または`case_when()`関数を使用

```r
# Country, GDP, G7, G20, OECD列のみ抽出し、df3に保存
df3 <- df %>%
  select(Country, GDP, G7:OECD)
df3
```

```
## # A tibble: 186 x 5
##    Country                  GDP    G7   G20  OECD
##    <chr>                  <dbl> <dbl> <dbl> <dbl>
##  1 Afghanistan           19101.     0     0     0
##  2 Albania               15278.     0     0     0
##  3 Algeria              169988.     0     0     0
##  4 Andorra                3154.     0     0     0
##  5 Angola                94635.     0     0     0
##  6 Antigua and Barbuda    1728.     0     0     0
##  7 Argentina            449663.     0     1     0
##  8 Armenia               13673.     0     0     0
##  9 Australia           1392681.     0     1     1
## 10 Austria              446315.     0     0     1
## # … with 176 more rows
```

---

## `mutate()`の応用

```r
df3 %>%
* mutate(Developed = G7 + G20 + OECD)
```

```
## # A tibble: 186 x 6
##    Country                  GDP    G7   G20  OECD Developed
##    <chr>                  <dbl> <dbl> <dbl> <dbl>     <dbl>
##  1 Afghanistan           19101.     0     0     0         0
##  2 Albania               15278.     0     0     0         0
##  3 Algeria              169988.     0     0     0         0
##  4 Andorra                3154.     0     0     0         0
##  5 Angola                94635.     0     0     0         0
##  6 Antigua and Barbuda    1728.     0     0     0         0
##  7 Argentina            449663.     0     1     0         1
##  8 Armenia               13673.     0     0     0         0
##  9 Australia           1392681.     0     1     1         2
## 10 Austria              446315.     0     0     1         1
## # … with 176 more rows
```

---

## `mutate()`の応用

```r
df3 %>%
* mutate(Developed = G7 + G20 + OECD,
*        Developed = ifelse(Developed >= 1, "Developed Country",
*                           "Etc"))
```

```
## # A tibble: 186 x 6
##    Country                  GDP    G7   G20  OECD Developed        
##    <chr>                  <dbl> <dbl> <dbl> <dbl> <chr>            
##  1 Afghanistan           19101.     0     0     0 Etc              
##  2 Albania               15278.     0     0     0 Etc              
##  3 Algeria              169988.     0     0     0 Etc              
##  4 Andorra                3154.     0     0     0 Etc              
##  5 Angola                94635.     0     0     0 Etc              
##  6 Antigua and Barbuda    1728.     0     0     0 Etc              
##  7 Argentina            449663.     0     1     0 Developed Country
##  8 Armenia               13673.     0     0     0 Etc              
##  9 Australia           1392681.     0     1     1 Developed Country
## 10 Austria              446315.     0     0     1 Developed Country
## # … with 176 more rows
```
…
## `mutate()`の応用

```r
df4 %>%
* mutate(Continent_JP = recode(Continent,
*                              "Africa"  = "アフリカ",
*                              "America" = "アメリカ",
*                              "Asia"    = "アジア",
*                              "Europe"  = "ヨーロッパ",
*                              .default = "オセアニア"))
```

```
## # A tibble: 186 x 5
##    Country                  GDP      PPP Continent Continent_JP
##    <chr>                  <dbl>    <dbl> <chr>     <chr>       
##  1 Afghanistan           19101.   82737. Asia      アジア      
##  2 Albania               15278.   39658. Europe    ヨーロッパ  
##  3 Algeria              169988.  496572. Africa    アフリカ    
##  4 Andorra                3154.      NA  Europe    ヨーロッパ  
##  5 Angola                94635.  218533. Africa    アフリカ    
##  6 Antigua and Barbuda    1728.    2083. America   アメリカ    
##  7 Argentina            449663. 1036721. America   アメリカ    
##  8 Armenia               13673.   38446. Europe    ヨーロッパ  
##  9 Australia           1392681. 1275027. Oceania   オセアニア  
## 10 Austria              446315.  502771. Europe    ヨーロッパ  
## # … with 176 more rows
```
…
```
## [1] 46  5
```

```r
print(binded_data, n = 7)
```

```
## # A tibble: 46 x 5
##   Country          Population    Area      GDP Continent
##   <chr>                 <dbl>   <dbl>    <dbl> <chr>    
## 1 Australia          25499884 7682300 1392681. Oceania  
## 2 Fiji                 896445   18270    5536. Oceania  
## 3 New Zealand         4842780  263820  206929. Oceania  
## 4 Papua New Guinea    8947024  452860   24970. Oceania  
## 5 Afghanistan        38928346  652860   19101. Asia     
## 6 Bahrain             1701575     760   38574. Asia     
## 7 Bangladesh        164689383  130170  302571. Asia     
## # … with 39 more rows
```
…
## `pivot_longer()`: Wide to Long

* `cols = starts_with("2020")`もOK

```r
COVID_Long <- COVID_df %>%
* pivot_longer(cols      = `2020/06/27`:`2020/07/01`,
*              names_to  = "Date",
*              values_to = "Positive")
COVID_Long
```

```
## # A tibble: 25 x 3
##    Country Date       Positive
##    <chr>   <chr>         <dbl>
##  1 Japan   2020/06/27      100
##  2 Japan   2020/06/28       93
##  3 Japan   2020/06/29       86
##  4 Japan   2020/06/30      117
##  5 Japan   2020/07/01      130
##  6 Korea   2020/06/27       62
##  7 Korea   2020/06/28       42
##  8 Korea   2020/06/29       43
##  9 Korea   2020/06/30       50
## 10 Korea   2020/07/01       54
## # … with 15 more rows
```
…
