Jaehyun Song, Ph.D. - 可視化[理論]
…
このように{ggplot2}による作図コードはBase Rや{lattice}に比べ、読みやすいのが特徴です。また、書く手間も大きく省かれる場合が多く、結果として出力されるグラフも綺麗です（これは好みによりますが）。しかし、{ggplot2}にも限界はあり、代表的なものとして (1) 3次元グラフが作成でないこと、(2) 処理速度が遅い点があります。後者は多くの場合においてあまり気にならない程度ですが、3次元プロットが必要な場合は{lattice}や別途のパッケージを使う必要があります。しかし、社会科学において3次元プロットが使われる機会は少なく、2次元平面であっても3次元以上のデータを表現することも可能です。本書では{ggplot2}を用いた可視化方法のみについて解説していきます。

グラフィックの文法

グラフィックの文法

本書では特別な事情がない限り、{ggplot2}による可視化のみを扱います。既に{ggplot2}のggが「グラフィックの文法 (grammar of graphics)」だと説明しましたが、この概念は Wilkinson (2005) によって提唱された比較的新しいものであり、{ggplot2}はHadley先生がグラフィックの文法に則った作図のプロセスをRで具現化したものです。

グラフィックスの文法とは、グラフを構造化された方法で記述し、レイヤーを積み重ねることによってグラフを構築するフレームワークです。グラフは様々な要素で構成されています。横軸と縦軸、点、線、グラフ、凡例、図のタイトルなどがあります。横軸や縦軸は線の太さ、目盛りの間隔、数字の大きさなどに分割することも可能です。このように1つのグラフは数十、数百以上の要素の集合です。これら一つ一つの要素をレイヤーとして捉え、それを積み重ねることでグラフを作成します。これが簡単な{ggplot2}による作図のイメージですが、以下でもうちょっと目に見える形でこれを解説していきます。

ggplot2のイメージ

それでは{ggplot2}によるグラフが出来上がる過程を見ていきます。例えば、以下のようなデータセットdfがあるとします。変数は年度を表すYear、鉄道事業者のタイプを表すCompany_Type1、一日利用者数の平均値を表すPがあります。例えば、2行目は2011年度におけるJRが管理する駅の一日平均利用者数が約7399名であることを意味します。

# A tibble: 28 × 3
    Year Company_Type1     P
   <dbl> <fct>         <dbl>
 1  2011 その他         4769
 2  2011 JR             7399
 3  2011 大手私鉄      19421
 4  2011 準大手私鉄     7683
 5  2012 その他         5014
 6  2012 JR             7289
 7  2012 大手私鉄      21286
 8  2012 準大手私鉄    10471
 9  2013 その他         5154
10  2013 JR             7383
# … with 18 more rows
…
