Jaehyun Song, Ph.D. - 可視化[発展]
…
Heatmap_df

# A tibble: 178 × 5
   Country             Continent  Income                     FH_Total HDI_2018
   <chr>               <fct>      <fct>                         <dbl>    <dbl>
 1 Afghanistan         アジア     "1万ドル未満"                    27    0.496
 2 Albania             ヨーロッパ "1万ドル以上\n2万ドル未満"       67    0.791
 3 Algeria             アフリカ   "1万ドル以上\n2万ドル未満"       34    0.759
 4 Angola              アフリカ   "1万ドル未満"                    32    0.574
 5 Antigua and Barbuda アメリカ   "2万ドル以上\n3万ドル未満"       85    0.776
 6 Argentina           アメリカ   "2万ドル以上\n3万ドル未満"       85    0.83 
 7 Armenia             ヨーロッパ "1万ドル以上\n2万ドル未満"       53    0.76 
 8 Australia           オセアニア "3万ドル以上"                    97    0.938
 9 Austria             ヨーロッパ "3万ドル以上"                    93    0.914
10 Azerbaijan          ヨーロッパ "1万ドル以上\n2万ドル未満"       10    0.754
# ℹ 168 more rows
…
　今回は各都道府県を人口密度ごとに色塗りをしてみましょう。ne_states()で読み込んだデータに人口密度のデータはないため、別途のデータと結合する必要があります。筆者が予め作成しておいたデータを読み込み、中身を確認してみます。

Japan_Density <- read_csv("Data/Japan_Density.csv")

Japan_Density

# A tibble: 47 × 3
    Code Name   Density
   <dbl> <chr>    <dbl>
 1     1 北海道    66.6
 2     2 青森県   128. 
 3     3 岩手県    79.2
 4     4 宮城県   316. 
 5     5 秋田県    82.4
 6     6 山形県   115. 
 7     7 福島県   133  
 8     8 茨城県   470. 
 9     9 栃木県   302. 
10    10 群馬県   305. 
# ℹ 37 more rows
…
　ここでもデータの結合&マッピングが可能です。大阪府内自治体の人口と学生数が格納されたデータを読み込んでみましょう。こちらは2015年国勢調査の結果から取得したデータです。

Osaka_Student <- read_csv("data/Osaka_Student.csv")

Osaka_Student

# A tibble: 75 × 4
    Code Name                Pop Student
   <dbl> <chr>             <dbl>   <dbl>
 1 27000 大阪府          8839469  438901
 2 27100 大阪市          2691185  104208
 3 27102 大阪市 都島区    104727    3889
 4 27103 大阪市 福島区     72484    2448
 5 27104 大阪市 此花区     66656    2478
 6 27106 大阪市 西区       92430    2633
 7 27107 大阪市 港区       82035    3072
 8 27108 大阪市 大正区     65141    2627
 9 27109 大阪市 天王寺区   75729    3480
10 27111 大阪市 浪速区     69766    1409
# ℹ 65 more rows
…
Vote21
2021年選挙における当該回答者の投票先

　たとえば、1番目の回答者は2020年に棄権し、2021年も棄権したことを意味する。また、5番目の回答者は2020年に政党Bに投票し、2021年は政党Cに投票したことを意味する。続いて、このデータを{ggalluvial}に適した形式のデータに加工します。具体的には「2020年棄権、かつ2021年棄権」、「2020年棄権、かつ2021年政党Aへ投票」、…、「2020年政党Bへ投票、かつ2021年政党Aへ投票」のように全ての組み合わせに対し、該当するケース数を計算する必要があります。今回のデータだと、投票先はいずれも政党A、政党B、政党C、政党D、その他、棄権、DK (わからない)の7であるため、49パターンができます。それぞれのパターンに該当するケース数を計算するためにはVote20とVote21でデータをグループ化し、ケース数を計算します。

Vote_2021 <- Vote_2021 %>%
  group_by(Vote20, Vote21) %>%
  summarise(Freq    = n(),
            .groups = "drop")

Vote_2021

# A tibble: 47 × 3
   Vote20 Vote21  Freq
   <chr>  <chr>  <int>
 1 DK     DK       111
 2 DK     その他     8
 3 DK     政党A    116
 4 DK     政党B     29
 5 DK     政党C     15
 6 DK     政党D      7
 7 DK     棄権      57
 8 その他 DK        18
 9 その他 その他    73
10 その他 政党A    121
# ℹ 37 more rows
…
