gt入門 – Jaehyun Song, Ph.D.
…
# A tibble: 7 × 6
  Variable         Mean      SD        Min      Max   Obs
  <chr>           <dbl>   <dbl>      <dbl>    <dbl> <dbl>
1 Population     41.7   151.      0.000801 1447.      186
2 Area           69.6   187.      0        1638.      186
3 GDP_per_capita  1.62    2.57    0.00577    18.3     185
4 PPP_per_capita  2.08    2.10    0.0733     11.3     178
5 HDI_2018        0.713   0.153   0.377       0.954   180
6 Polity_Score    4.26    6.10  -10          10       158
7 FH_Total       57.7    29.9     0         100       185

df2

# A tibble: 35 × 7
   Continent Variable          Mean      SD      Min     Max   Obs
   <chr>     <chr>            <dbl>   <dbl>    <dbl>   <dbl> <dbl>
 1 Africa    Population      24.6    35.9    0.0983  206.       54
 2 Africa    Area            54.4    59.2    0.046   238.       54
 3 Africa    GDP_per_capita   0.251   0.313  0.00577   1.73     54
 4 Africa    PPP_per_capita   0.567   0.602  0.0733    2.78     52
 5 Africa    HDI_2018         0.553   0.109  0.377     0.801    53
 6 Africa    Polity_Score     2.48    5.00  -9        10        48
 7 Africa    FH_Total        41.6    25.1    2        92        54
 8 America   Population      28.7    66.3    0.0532  334.       36
 9 America   Area           108.    246.     0.026   916.       36
10 America   GDP_per_capita   1.25    1.27   0.0745    6.44     36
# ℹ 25 more rows
…
番外編: データの出力

　PDF、Microsoft Word形式の文書を作成する場合、生データ（raw data）を掲載することはめったにないだろう。数十行のデータなら掲載することもあるが2、規模の大きいデータセットの場合、資源（紙）の無駄遣いとなる。しかし、HTMLフォーマットの文書なら話は別だ。ファイルの容量は大きくなるものの、生データを全て掲載することもできる。

　そこまで大きいデータセットではないが、たとえばdf2をR Markdown / QuartoのHTML文書に掲載するとしよう。この場合、まず考えられるのは普通にdf2を出力することだ。ただし、df2のクラスによって出力結果がややことなる。たとえば、df2はread_csv()関数で読み込んだデータであるため、data.frameでなく、tibbleである。実際にクラスを確認してみよう。「クラス（class）」の概念についてはオブジェクト志向型プログラミングの記事を参照されたい。

class(df2)

[1] "spec_tbl_df" "tbl_df"      "tbl"         "data.frame" 

　data.frameクラスを継承しているが、クラスに"tbl"や"tbl_df"も含まれており、これはdf2がtibble形式であることを意味する。これをこのまま出力してみよう。

df2

# A tibble: 35 × 7
   Continent Variable          Mean      SD      Min     Max   Obs
   <chr>     <chr>            <dbl>   <dbl>    <dbl>   <dbl> <dbl>
 1 Africa    Population      24.6    35.9    0.0983  206.       54
 2 Africa    Area            54.4    59.2    0.046   238.       54
 3 Africa    GDP_per_capita   0.251   0.313  0.00577   1.73     54
 4 Africa    PPP_per_capita   0.567   0.602  0.0733    2.78     52
 5 Africa    HDI_2018         0.553   0.109  0.377     0.801    53
 6 Africa    Polity_Score     2.48    5.00  -9        10        48
 7 Africa    FH_Total        41.6    25.1    2        92        54
 8 America   Population      28.7    66.3    0.0532  334.       36
 9 America   Area           108.    246.     0.026   916.       36
10 America   GDP_per_capita   1.25    1.27   0.0745    6.44     36
# ℹ 25 more rows
…
