実習1: ランダム化比較試験
…
データの詳細についてはGerber, Green, and Larimer (2008)を参照してください。まずはデータの大きさを確認します。

dim(GG_df)

## [1] 344084     16

GG_dfは344084行、16列のデータということが分かります。つまり、観察数（=被験者数）が3344084人であり、変数が16個測定されているということです。つづいて、データの中身を見ますが、サイズが極めて大きので、最初の20人分のデータのみ表示させます。print(GG_df, n = 20)と打つだけでデータが表示されます。

print(GG_df, n = 20)

## # A tibble: 344,084 x 16
##    sex     yob g2000 g2002 g2004 p2000 p2002 p2004 treatment cluster voted hh_id
##    <chr> <dbl> <chr> <chr> <chr> <chr> <chr> <chr> <chr>       <dbl> <chr> <dbl>
##  1 male   1941 yes   yes   yes   no    yes   No    Civic Du…       1 No        1
##  2 fema…  1947 yes   yes   yes   no    yes   No    Civic Du…       1 No        1
##  3 male   1951 yes   yes   yes   no    yes   No    Hawthorne       1 Yes       2
##  4 fema…  1950 yes   yes   yes   no    yes   No    Hawthorne       1 Yes       2
##  5 fema…  1982 yes   yes   yes   no    yes   No    Hawthorne       1 Yes       2
##  6 male   1981 no    no    yes   no    no    No    Control         1 No        3
##  7 fema…  1959 yes   yes   yes   no    yes   No    Control         1 Yes       3
##  8 male   1956 yes   yes   yes   no    yes   No    Control         1 Yes       3
##  9 fema…  1968 no    no    yes   no    yes   No    Control         1 No        4
## 10 male   1967 yes   yes   yes   no    yes   No    Control         1 No        4
## 11 male   1941 yes   yes   yes   no    no    Yes   Control         1 Yes       5
## 12 male   1945 yes   yes   yes   no    no    No    Hawthorne       1 No        6
## 13 fema…  1949 yes   yes   yes   no    yes   No    Hawthorne       1 Yes       6
## 14 fema…  1969 yes   no    yes   no    no    Yes   Control         1 No        7
## 15 fema…  1967 yes   yes   yes   yes   yes   Yes   Control         1 Yes       8
## 16 male   1961 yes   yes   yes   no    yes   Yes   Control         1 Yes       8
## 17 fema…  1957 yes   yes   yes   no    no    No    Self            1 No        9
## 18 male   1955 no    no    yes   no    no    No    Self            1 No        9
## 19 fema…  1943 yes   yes   yes   no    yes   No    Control         1 Yes      10
## 20 male   1939 yes   yes   yes   no    yes   No    Neighbors       1 Yes      11
## # … with 344,064 more rows, and 4 more variables: hh_size <dbl>,
## #   numberofnames <dbl>, p2004_mean <dbl>, g2004_mean <dbl>
…
